[
{"movieName": "Avatar", "positiveReviews": 11, "negativeReviews": 9, "genres": ["Action", "Adventure", "Fantasy", "Sci-Fi"]},
{"movieName": "Spectre", "positiveReviews": 3, "negativeReviews": 4, "genres": ["Action", "Adventure", "Thriller"]},
{"movieName": "The Dark Knight Rises", "positiveReviews": 1, "negativeReviews": 12, "genres": ["Action", "Thriller"]},
{"movieName": "John Carter", "positiveReviews": 1, "negativeReviews": 16, "genres": ["Action", "Adventure", "Sci-Fi"]},
{"movieName": "Tangled", "positiveReviews": 13, "negativeReviews": 8, "genres": ["Adventure", "Animation", "Comedy", "Family", "Fantasy", "Musical", "Romance"]},
{"movieName": "Avengers: Age of Ultron", "positiveReviews": 6, "negativeReviews": 5, "genres": ["Action", "Adventure", "Sci-Fi"]},
{"movieName": "Robin Hood", "positiveReviews": 11, "negativeReviews": 6, "genres": ["Action", "Adventure", "Drama", "History"]},
{"movieName": "King Kong", "positiveReviews": 11, "negativeReviews": 4, "genres": ["Action", "Adventure", "Drama", "Romance"]},
{"movieName": "Titanic", "positiveReviews": 10, "negativeReviews": 8, "genres": ["Drama", "Romance"]},
{"movieName": "Captain America: Civil War", "positiveReviews": 5, "negativeReviews": 5, "genres": ["Action", "Adventure", "Sci-Fi"]},
{"movieName": "Battleship", "positiveReviews": 17, "negativeReviews": 8, "genres": ["Action", "Adventure", "Sci-Fi", "Thriller"]},
{"movieName": "Jurassic World", "positiveReviews": 7, "negativeReviews": 7, "genres": ["Action", "Adventure", "Sci-Fi", "Thriller"]},
{"movieName": "Skyfall", "positiveReviews": 5, "negativeReviews": 12, "genres": ["Action", "Adventure", "Thriller"]},
{"movieName": "Iron Man 3", "positiveReviews": 1, "negativeReviews": 9, "genres": ["Action", "Adventure", "Sci-Fi"]},
{"movieName": "Alice in Wonderland", "positiveReviews": 10, "negativeReviews": 4, "genres": ["Adventure", "Family", "Fantasy"]},
{"movieName": "X-Men: The Last Stand", "positiveReviews": 2, "negativeReviews": 2, "genres": ["Action", "Adventure", "Fantasy", "Sci-Fi", "Thriller"]},
{"movieName": "Monsters University", "positiveReviews": 6, "negativeReviews": 4, "genres": ["Adventure", "Animation", "Comedy", "Family", "Fantasy"]},
{"movieName": "Transformers: Revenge of the Fallen", "positiveReviews": 3, "negativeReviews": 1, "genres": ["Action", "Adventure", "Sci-Fi"]},
{"movieName": "TRON: Legacy", "positiveReviews": 16, "negativeReviews": 4, "genres": ["Action", "Adventure", "Sci-Fi"]},
{"movieName": "Cars 2", "positiveReviews": 11, "negativeReviews": 8, "genres": ["Adventure", "Animation", "Comedy", "Family", "Sport"]},
{"movieName": "Green Lantern", "positiveReviews": 2, "negativeReviews": 6, "genres": ["Action", "Adventure", "Sci-Fi"]},
{"movieName": "Toy Story 3", "positiveReviews": 6, "negativeReviews": 9, "genres": ["Adventure", "Animation", "Comedy", "Family", "Fantasy"]},
{"movieName": "Terminator Salvation", "positiveReviews": 5, "negativeReviews": 3, "genres": ["Action", "Adventure", "Sci-Fi"]},
{"movieName": "Furious 7", "positiveReviews": 1, "negativeReviews": 4, "genres": ["Action", "Crime", "Thriller"]},
{"movieName": "World War Z", "positiveReviews": 8, "negativeReviews": 6, "genres": ["Action", "Adventure", "Horror", "Sci-Fi", "Thriller"]},
{"movieName": "X-Men: Days of Future Past", "positiveReviews": 8, "negativeReviews": 3, "genres": ["Action", "Adventure", "Fantasy", "Sci-Fi", "Thriller"]},
{"movieName": "The Great Gatsby", "positiveReviews": 13, "negativeReviews": 8, "genres": ["Drama", "Romance"]},
{"movieName": "Pacific Rim", "positiveReviews": 13, "negativeReviews": 11, "genres": ["Action", "Adventure", "Sci-Fi"]},
{"movieName": "The Good Dinosaur", "positiveReviews": 13, "negativeReviews": 5, "genres": ["Adventure", "Animation", "Comedy", "Family", "Fantasy"]},
{"movieName": "Brave", "positiveReviews": 8, "negativeReviews": 6, "genres": ["Adventure", "Animation", "Comedy", "Family", "Fantasy"]},
{"movieName": "2012", "positiveReviews": 11, "negativeReviews": 10, "genres": ["Action", "Adventure", "Sci-Fi"]},
{"movieName": "Jupiter Ascending", "positiveReviews": 20, "negativeReviews": 6, "genres": ["Action", "Adventure", "Sci-Fi"]},
{"movieName": "The Legend of Tarzan", "positiveReviews": 4, "negativeReviews": 2, "genres": ["Action", "Adventure", "Drama", "Romance"]},
{"movieName": "X-Men: Apocalypse", "positiveReviews": 5, "negativeReviews": 3, "genres": ["Action", "Adventure", "Sci-Fi"]},
{"movieName": "The Dark Knight", "positiveReviews": 3, "negativeReviews": 14, "genres": ["Action", "Crime", "Drama", "Thriller"]},
{"movieName": "Up", "positiveReviews": 10, "negativeReviews": 10, "genres": ["Adventure", "Animation", "Comedy", "Family"]},
{"movieName": "Hugo", "positiveReviews": 11, "negativeReviews": 7, "genres": ["Adventure", "Drama", "Family", "Mystery"]},
{"movieName": "Wild Wild West", "positiveReviews": 11, "negativeReviews": 4, "genres": ["Action", "Comedy", "Sci-Fi", "Western"]},
{"movieName": "Suicide Squad", "positiveReviews": 1, "negativeReviews": 15, "genres": ["Action", "Adventure", "Comedy", "Sci-Fi"]},
{"movieName": "Waterworld", "positiveReviews": 7, "negativeReviews": 4, "genres": ["Action", "Adventure", "Sci-Fi", "Thriller"]},
{"movieName": "Inside Out", "positiveReviews": 7, "negativeReviews": 8, "genres": ["Adventure", "Animation", "Comedy", "Drama", "Family", "Fantasy"]},
{"movieName": "The Jungle Book", "positiveReviews": 9, "negativeReviews": 5, "genres": ["Adventure", "Drama", "Family", "Fantasy"]},
{"movieName": "Maleficent", "positiveReviews": 18, "negativeReviews": 3, "genres": ["Action", "Adventure", "Family", "Fantasy", "Romance"]},
{"movieName": "Dawn of the Planet of the Apes", "positiveReviews": 1, "negativeReviews": 4, "genres": ["Action", "Adventure", "Drama", "Sci-Fi"]},
{"movieName": "The Lovers", "positiveReviews": 6, "negativeReviews": 4, "genres": ["Action", "Adventure", "Romance", "Sci-Fi"]},
{"movieName": "47 Ronin", "positiveReviews": 1, "negativeReviews": 2, "genres": ["Action", "Adventure", "Drama", "Fantasy"]},
{"movieName": "Captain America: The Winter Soldier", "positiveReviews": 8, "negativeReviews": 1, "genres": ["Action", "Adventure", "Sci-Fi"]},
{"movieName": "Shrek Forever After", "positiveReviews": 2, "negativeReviews": 4, "genres": ["Adventure", "Animation", "Comedy", "Family", "Fantasy"]},
{"movieName": "Tomorrowland", "positiveReviews": 5, "negativeReviews": 1, "genres": ["Action", "Adventure", "Family", "Mystery", "Sci-Fi"]},
{"movieName": "Big Hero 6", "positiveReviews": 22, "negativeReviews": 5, "genres": ["Action", "Adventure", "Animation", "Comedy", "Drama", "Family", "Sci-Fi"]},
{"movieName": "Wreck-It Ralph", "positiveReviews": 5, "negativeReviews": 2, "genres": ["Adventure", "Animation", "Comedy", "Family", "Sci-Fi"]},
{"movieName": "The Polar Express", "positiveReviews": 15, "negativeReviews": 3, "genres": ["Adventure", "Animation", "Family", "Fantasy"]},
{"movieName": "How to Train Your Dragon", "positiveReviews": 6, "negativeReviews": 6, "genres": ["Adventure", "Animation", "Family", "Fantasy"]},
{"movieName": "Interstellar", "positiveReviews": 9, "negativeReviews": 7, "genres": ["Adventure", "Drama", "Sci-Fi"]},
{"movieName": "Inception", "positiveReviews": 13, "negativeReviews": 11, "genres": ["Action", "Adventure", "Sci-Fi", "Thriller"]},
{"movieName": "The Fast and the Furious", "positiveReviews": 1, "negativeReviews": 20, "genres": ["Action", "Crime", "Thriller"]},
{"movieName": "The Curious Case of Benjamin Button", "positiveReviews": 18, "negativeReviews": 8, "genres": ["Drama", "Fantasy", "Romance"]},
{"movieName": "Poseidon", "positiveReviews": 9, "negativeReviews": 4, "genres": ["Action", "Adventure", "Drama", "Thriller"]},
{"movieName": "Alice Through the Looking Glass", "positiveReviews": 1, "negativeReviews": 1, "genres": ["Adventure", "Family", "Fantasy"]},
{"movieName": "Shrek the Third", "positiveReviews": 8, "negativeReviews": 3, "genres": ["Adventure", "Animation", "Comedy", "Family", "Fantasy"]},
{"movieName": "Warcraft", "positiveReviews": 11, "negativeReviews": 8, "genres": ["Action", "Adventure", "Fantasy"]},
{"movieName": "Pearl Harbor", "positiveReviews": 11, "negativeReviews": 2, "genres": ["Action", "Drama", "History", "Romance", "War"]},
{"movieName": "Transformers", "positiveReviews": 14, "negativeReviews": 6, "genres": ["Action", "Adventure", "Sci-Fi"]},
{"movieName": "Alexander", "positiveReviews": 5, "negativeReviews": 13, "genres": ["Action", "Adventure", "Biography", "Drama", "History", "Romance", "War"]},
{"movieName": "Hancock", "positiveReviews": 7, "negativeReviews": 1, "genres": ["Action", "Drama"]},
{"movieName": "I Am Legend", "positiveReviews": 7, "negativeReviews": 10, "genres": ["Drama", "Horror", "Sci-Fi"]},
{"movieName": "Charlie and the Chocolate Factory", "positiveReviews": 11, "negativeReviews": 7, "genres": ["Adventure", "Comedy", "Family", "Fantasy"]},
{"movieName": "Ratatouille", "positiveReviews": 23, "negativeReviews": 9, "genres": ["Animation", "Comedy", "Family", "Fantasy"]},
{"movieName": "Batman Begins", "positiveReviews": 2, "negativeReviews": 12, "genres": ["Action", "Adventure"]},
{"movieName": "Night at the Museum: Battle of the Smithsonian", "positiveReviews": 2, "negativeReviews": 2, "genres": ["Adventure", "Comedy", "Family", "Fantasy"]},
{"movieName": "X-Men Origins: Wolverine", "positiveReviews": 2, "negativeReviews": 3, "genres": ["Action", "Adventure", "Fantasy", "Sci-Fi", "Thriller"]},
{"movieName": "Frozen", "positiveReviews": 12, "negativeReviews": 5, "genres": ["Adventure", "Animation", "Comedy", "Family", "Fantasy", "Musical"]},
{"movieName": "The Matrix Reloaded", "positiveReviews": 2, "negativeReviews": 3, "genres": ["Action", "Sci-Fi"]},
{"movieName": "Thor: The Dark World", "positiveReviews": 5, "negativeReviews": 5, "genres": ["Action", "Adventure", "Fantasy"]},
{"movieName": "Mad Max: Fury Road", "positiveReviews": 5, "negativeReviews": 2, "genres": ["Action", "Adventure", "Sci-Fi", "Thriller"]},
{"movieName": "Angels & Demons", "positiveReviews": 16, "negativeReviews": 5, "genres": ["Mystery", "Thriller"]},
{"movieName": "Thor", "positiveReviews": 9, "negativeReviews": 9, "genres": ["Action", "Adventure", "Fantasy"]},
{"movieName": "Bolt", "positiveReviews": 16, "negativeReviews": 7, "genres": ["Adventure", "Animation", "Comedy", "Drama", "Family"]},
{"movieName": "Dark Shadows", "positiveReviews": 7, "negativeReviews": 9, "genres": ["Comedy", "Fantasy", "Horror"]},
{"movieName": "Mission: Impossible - Rogue Nation", "positiveReviews": 2, "negativeReviews": 1, "genres": ["Action", "Adventure", "Thriller"]},
{"movieName": "The Wolfman", "positiveReviews": 7, "negativeReviews": 6, "genres": ["Drama", "Fantasy", "Horror", "Thriller"]},
{"movieName": "The Legend of Tarzan", "positiveReviews": 4, "negativeReviews": 2, "genres": ["Action", "Adventure", "Drama", "Romance"]},
{"movieName": "Bee Movie", "positiveReviews": 12, "negativeReviews": 3, "genres": ["Adventure", "Animation", "Comedy", "Family"]},
{"movieName": "Kung Fu Panda 2", "positiveReviews": 5, "negativeReviews": 1, "genres": ["Action", "Adventure", "Animation", "Comedy", "Family"]},
{"movieName": "The Last Airbender", "positiveReviews": 16, "negativeReviews": 4, "genres": ["Action", "Adventure", "Family", "Fantasy"]},
{"movieName": "White House Down", "positiveReviews": 9, "negativeReviews": 8, "genres": ["Action", "Drama", "Thriller"]},
{"movieName": "Mars Needs Moms", "positiveReviews": 1, "negativeReviews": 1, "genres": ["Action", "Adventure", "Animation", "Comedy", "Family", "Sci-Fi"]},
{"movieName": "Flushed Away", "positiveReviews": 10, "negativeReviews": 1, "genres": ["Adventure", "Animation", "Comedy", "Family"]},
{"movieName": "Pan", "positiveReviews": 7, "negativeReviews": 6, "genres": ["Adventure", "Family", "Fantasy"]},
{"movieName": "Mr. Peabody & Sherman", "positiveReviews": 2, "negativeReviews": 1, "genres": ["Adventure", "Animation", "Comedy", "Family", "Sci-Fi"]},
{"movieName": "Troy", "positiveReviews": 11, "negativeReviews": 8, "genres": ["Adventure"]},
{"movieName": "Die Another Day", "positiveReviews": 5, "negativeReviews": 11, "genres": ["Action", "Adventure", "Thriller"]},
{"movieName": "Ghostbusters", "positiveReviews": 3, "negativeReviews": 4, "genres": ["Action", "Comedy", "Fantasy", "Sci-Fi"]},
{"movieName": "Armageddon", "positiveReviews": 11, "negativeReviews": 9, "genres": ["Action", "Adventure", "Sci-Fi", "Thriller"]},
{"movieName": "Kung Fu Panda 3", "positiveReviews": 3, "negativeReviews": 1, "genres": ["Action", "Adventure", "Animation", "Comedy", "Family"]},
{"movieName": "Rise of the Guardians", "positiveReviews": 8, "negativeReviews": 4, "genres": ["Adventure", "Animation", "Family", "Fantasy"]},
{"movieName": "Fun with Dick and Jane", "positiveReviews": 2, "negativeReviews": 3, "genres": ["Comedy", "Crime"]},
{"movieName": "The Last Samurai", "positiveReviews": 9, "negativeReviews": 5, "genres": ["Action", "Drama", "History", "War"]},
{"movieName": "Exodus: Gods and Kings", "positiveReviews": 1, "negativeReviews": 1, "genres": ["Action", "Adventure", "Drama"]},
{"movieName": "Star Trek", "positiveReviews": 10, "negativeReviews": 5, "genres": ["Action", "Adventure", "Sci-Fi"]},
{"movieName": "Stealth", "positiveReviews": 10, "negativeReviews": 8, "genres": ["Action", "Adventure", "Sci-Fi", "Thriller"]},
{"movieName": "Watchmen", "positiveReviews": 11, "negativeReviews": 4, "genres": ["Action", "Drama", "Mystery", "Sci-Fi"]},
{"movieName": "Hulk", "positiveReviews": 9, "negativeReviews": 9, "genres": ["Action", "Sci-Fi"]},
{"movieName": "Sahara", "positiveReviews": 9, "negativeReviews": 6, "genres": ["Action", "Adventure", "Comedy", "Thriller"]},
{"movieName": "Captain America: The First Avenger", "positiveReviews": 4, "negativeReviews": 2, "genres": ["Action", "Adventure", "Sci-Fi"]},
{"movieName": "The World Is Not Enough", "positiveReviews": 5, "negativeReviews": 2, "genres": ["Action", "Adventure", "Thriller"]},
{"movieName": "The Incredible Hulk", "positiveReviews": 7, "negativeReviews": 6, "genres": ["Action", "Adventure", "Sci-Fi"]},
{"movieName": "Miami Vice", "positiveReviews": 6, "negativeReviews": 1, "genres": ["Action", "Crime", "Drama", "Mystery", "Thriller"]},
{"movieName": "The BFG", "positiveReviews": 5, "negativeReviews": 1, "genres": ["Adventure", "Family", "Fantasy"]},
{"movieName": "The Revenant", "positiveReviews": 11, "negativeReviews": 6, "genres": ["Adventure", "Drama", "Thriller", "Western"]},
{"movieName": "Turbo", "positiveReviews": 10, "negativeReviews": 12, "genres": ["Adventure", "Animation", "Comedy", "Family", "Sport"]},
{"movieName": "Rango", "positiveReviews": 21, "negativeReviews": 9, "genres": ["Adventure", "Animation", "Comedy", "Family", "Western"]},
{"movieName": "Penguins of Madagascar", "positiveReviews": 1, "negativeReviews": 2, "genres": ["Adventure", "Animation", "Comedy", "Family"]},
{"movieName": "The Bourne Ultimatum", "positiveReviews": 1, "negativeReviews": 1, "genres": ["Action", "Mystery", "Thriller"]},
{"movieName": "Kung Fu Panda", "positiveReviews": 13, "negativeReviews": 8, "genres": ["Action", "Adventure", "Animation", "Comedy", "Family"]},
{"movieName": "Home", "positiveReviews": 9, "negativeReviews": 7, "genres": ["Adventure", "Animation", "Comedy", "Family", "Fantasy", "Sci-Fi"]},
{"movieName": "War of the Worlds", "positiveReviews": 10, "negativeReviews": 10, "genres": ["Adventure", "Sci-Fi", "Thriller"]},
{"movieName": "Puss in Boots", "positiveReviews": 3, "negativeReviews": 2, "genres": ["Action", "Adventure", "Animation", "Comedy", "Family", "Fantasy"]},
{"movieName": "Salt", "positiveReviews": 2, "negativeReviews": 2, "genres": ["Action", "Crime", "Mystery", "Thriller"]},
{"movieName": "Noah", "positiveReviews": 7, "negativeReviews": 11, "genres": ["Action", "Adventure", "Drama"]},
{"movieName": "Australia", "positiveReviews": 6, "negativeReviews": 10, "genres": ["Adventure", "Drama", "Romance", "War"]},
{"movieName": "After Earth", "positiveReviews": 9, "negativeReviews": 7, "genres": ["Action", "Adventure", "Sci-Fi"]},
{"movieName": "Dinosaur", "positiveReviews": 13, "negativeReviews": 5, "genres": ["Adventure", "Animation", "Family", "Thriller"]},
{"movieName": "Night at the Museum: Secret of the Tomb", "positiveReviews": 1, "negativeReviews": 1, "genres": ["Adventure", "Comedy", "Family", "Fantasy"]},
{"movieName": "Megamind", "positiveReviews": 14, "negativeReviews": 8, "genres": ["Action", "Animation", "Comedy", "Family", "Sci-Fi"]},
{"movieName": "R.I.P.D.", "positiveReviews": 3, "negativeReviews": 5, "genres": ["Action", "Comedy", "Fantasy"]},
{"movieName": "Pirates of the Caribbean: The Curse of the Black Pearl", "positiveReviews": 3, "negativeReviews": 1, "genres": ["Action", "Adventure", "Fantasy"]},
{"movieName": "The Da Vinci Code", "positiveReviews": 3, "negativeReviews": 3, "genres": ["Mystery", "Thriller"]},
{"movieName": "Rio 2", "positiveReviews": 1, "negativeReviews": 1, "genres": ["Adventure", "Animation", "Comedy", "Family", "Musical"]},
{"movieName": "X-Men 2", "positiveReviews": 3, "negativeReviews": 1, "genres": ["Action", "Adventure", "Fantasy", "Sci-Fi", "Thriller"]},
{"movieName": "Fast Five", "positiveReviews": 1, "negativeReviews": 17, "genres": ["Action", "Crime", "Thriller"]},
{"movieName": "Clash of the Titans", "positiveReviews": 7, "negativeReviews": 2, "genres": ["Action", "Adventure", "Fantasy"]},
{"movieName": "Total Recall", "positiveReviews": 10, "negativeReviews": 1, "genres": ["Action", "Sci-Fi"]},
{"movieName": "Batman & Robin", "positiveReviews": 2, "negativeReviews": 16, "genres": ["Action"]},
{"movieName": "How the Grinch Stole Christmas", "positiveReviews": 2, "negativeReviews": 1, "genres": ["Comedy", "Family", "Fantasy"]},
{"movieName": "The Perfect Storm", "positiveReviews": 11, "negativeReviews": 5, "genres": ["Action", "Adventure", "Drama", "Thriller"]},
{"movieName": "Life of Pi", "positiveReviews": 1, "negativeReviews": 22, "genres": ["Adventure", "Drama", "Fantasy"]},
{"movieName": "Ghost Rider", "positiveReviews": 13, "negativeReviews": 13, "genres": ["Action", "Fantasy", "Thriller"]},
{"movieName": "Jason Bourne", "positiveReviews": 10, "negativeReviews": 3, "genres": ["Action", "Thriller"]},
{"movieName": "Charlie's Angels: Full Throttle", "positiveReviews": 1, "negativeReviews": 2, "genres": ["Action", "Adventure", "Comedy", "Crime"]},
{"movieName": "Prometheus", "positiveReviews": 10, "negativeReviews": 5, "genres": ["Adventure", "Mystery", "Sci-Fi"]},
{"movieName": "Stuart Little 2", "positiveReviews": 2, "negativeReviews": 1, "genres": ["Adventure", "Animation", "Comedy", "Family", "Fantasy"]},
{"movieName": "Elysium", "positiveReviews": 10, "negativeReviews": 8, "genres": ["Action", "Drama", "Sci-Fi", "Thriller"]},
{"movieName": "RoboCop", "positiveReviews": 9, "negativeReviews": 9, "genres": ["Action", "Crime", "Sci-Fi", "Thriller"]},
{"movieName": "Speed Racer", "positiveReviews": 18, "negativeReviews": 6, "genres": ["Action", "Family", "Sport"]},
{"movieName": "How Do You Know", "positiveReviews": 5, "negativeReviews": 9, "genres": ["Comedy", "Drama", "Romance"]},
{"movieName": "Oblivion", "positiveReviews": 9, "negativeReviews": 4, "genres": ["Action", "Adventure", "Mystery", "Sci-Fi"]},
{"movieName": "Monsters, Inc.", "positiveReviews": 16, "negativeReviews": 9, "genres": ["Adventure", "Animation", "Comedy", "Family", "Fantasy"]},
{"movieName": "The Wolverine", "positiveReviews": 10, "negativeReviews": 2, "genres": ["Action", "Adventure", "Sci-Fi", "Thriller"]},
{"movieName": "Pan", "positiveReviews": 7, "negativeReviews": 6, "genres": ["Adventure", "Family", "Fantasy"]},
{"movieName": "The Fast and the Furious", "positiveReviews": 1, "negativeReviews": 20, "genres": ["Action", "Crime", "Thriller"]},
{"movieName": "Total Recall", "positiveReviews": 10, "negativeReviews": 1, "genres": ["Action", "Sci-Fi"]},
{"movieName": "The Fast and the Furious", "positiveReviews": 1, "negativeReviews": 20, "genres": ["Action", "Crime", "Thriller"]},
{"movieName": "The Lovers", "positiveReviews": 6, "negativeReviews": 4, "genres": ["Action", "Adventure", "Romance", "Sci-Fi"]},
{"movieName": "Ghostbusters", "positiveReviews": 3, "negativeReviews": 4, "genres": ["Action", "Comedy", "Fantasy", "Sci-Fi"]},
{"movieName": "The Jungle Book", "positiveReviews": 9, "negativeReviews": 5, "genres": ["Adventure", "Drama", "Family", "Fantasy"]},
{"movieName": "King Kong", "positiveReviews": 11, "negativeReviews": 4, "genres": ["Action", "Adventure", "Drama", "Romance"]},
{"movieName": "TRON: Legacy", "positiveReviews": 16, "negativeReviews": 4, "genres": ["Action", "Adventure", "Sci-Fi"]},
{"movieName": "Clash of the Titans", "positiveReviews": 7, "negativeReviews": 2, "genres": ["Action", "Adventure", "Fantasy"]},
{"movieName": "RoboCop", "positiveReviews": 9, "negativeReviews": 9, "genres": ["Action", "Crime", "Sci-Fi", "Thriller"]},
{"movieName": "Home", "positiveReviews": 9, "negativeReviews": 7, "genres": ["Adventure", "Animation", "Comedy", "Family", "Fantasy", "Sci-Fi"]},
{"movieName": "The Great Gatsby", "positiveReviews": 13, "negativeReviews": 8, "genres": ["Drama", "Romance"]},
{"movieName": "Skyfall", "positiveReviews": 5, "negativeReviews": 12, "genres": ["Action", "Adventure", "Thriller"]},
{"movieName": "Pan", "positiveReviews": 7, "negativeReviews": 6, "genres": ["Adventure", "Family", "Fantasy"]},
{"movieName": "Exodus: Gods and Kings", "positiveReviews": 1, "negativeReviews": 1, "genres": ["Action", "Adventure", "Drama"]},
{"movieName": "Alice in Wonderland", "positiveReviews": 10, "negativeReviews": 4, "genres": ["Adventure", "Family", "Fantasy"]},
{"movieName": "King Kong", "positiveReviews": 11, "negativeReviews": 4, "genres": ["Action", "Adventure", "Drama", "Romance"]},
{"movieName": "Home", "positiveReviews": 9, "negativeReviews": 7, "genres": ["Adventure", "Animation", "Comedy", "Family", "Fantasy", "Sci-Fi"]}
]